// Jest Snapshot v1, https://goo.gl/fbAQLP

exports[`component/Member should create the component 1`] = `
<div
  className="sc-bdVaJa bWDYUT"
>
  <img
    className="sc-bwzfXH ivUVxd"
    src="https://www.gravatar.com/avatar/51b3b8f583a4a342499ecf3d702baf89"
  />
  <div
    className="sc-htpNat jWKBKF"
  >
    <div
      className="sc-bxivhb bUZGRr"
    >
      berk
    </div>
    <div
      className="sc-ifAKCX eXRWbD"
    >
      owner
    </div>
  </div>
</div>
`;
